^D:\자료구조\CONSOLEAPPLICATION1\CONSOLEAPPLICATION1\RECURSION_EXP.CPP
/c /ZI /nologo /W3 /WX- /Od /Oy- /D WIN32 /D _DEBUG /D _CONSOLE /D _UNICODE /D UNICODE /Gm /EHsc /RTC1 /MDd /GS /fp:precise /Zc:wchar_t /Zc:forScope /Zc:inline /Fo"DEBUG\\" /Fd"DEBUG\VC140.PDB" /Gd /TP /analyze- D:\자료구조\CONSOLEAPPLICATION1\CONSOLEAPPLICATION1\RECURSION_EXP.CPP
^D:\자료구조\CONSOLEAPPLICATION1\CONSOLEAPPLICATION1\EXAMPLE01.CPP
/c /ZI /nologo /W3 /WX- /Od /Oy- /D WIN32 /D _DEBUG /D _CONSOLE /D _UNICODE /D UNICODE /Gm /EHsc /RTC1 /MDd /GS /fp:precise /Zc:wchar_t /Zc:forScope /Zc:inline /Fo"DEBUG\\" /Fd"DEBUG\VC140.PDB" /Gd /TP /analyze- D:\자료구조\CONSOLEAPPLICATION1\CONSOLEAPPLICATION1\EXAMPLE01.CPP
^D:\자료구조\CONSOLEAPPLICATION1\CONSOLEAPPLICATION1\EXAMPLE02CPP.CPP
/c /ZI /nologo /W3 /WX- /Od /Oy- /D WIN32 /D _DEBUG /D _CONSOLE /D _UNICODE /D UNICODE /Gm /EHsc /RTC1 /MDd /GS /fp:precise /Zc:wchar_t /Zc:forScope /Zc:inline /Fo"DEBUG\\" /Fd"DEBUG\VC140.PDB" /Gd /TP /analyze- D:\자료구조\CONSOLEAPPLICATION1\CONSOLEAPPLICATION1\EXAMPLE02CPP.CPP
