^D:\자료구조\자료구조 수행평가 과제\자료구조 수행평가 과제\DEBUG\자료구조_과제 (20120928 오한성).OBJ
D:\자료구조\자료구조 수행평가 과제\DEBUG\자료구조 수행평가 과제.ILK
D:\자료구조\자료구조 수행평가 과제\DEBUG\자료구조 수행평가 과제.EXE
D:\자료구조\자료구조 수행평가 과제\DEBUG\자료구조 수행평가 과제.PDB
