^D:\자료구조\CONSOLEAPPLICATION5\CONSOLEAPPLICATION5\TREE.CPP
D:\자료구조\CONSOLEAPPLICATION5\CONSOLEAPPLICATION5\DEBUG\VC140.PDB
D:\자료구조\CONSOLEAPPLICATION5\CONSOLEAPPLICATION5\DEBUG\VC140.IDB
D:\자료구조\CONSOLEAPPLICATION5\CONSOLEAPPLICATION5\DEBUG\TREE.OBJ
^D:\자료구조\CONSOLEAPPLICATION5\CONSOLEAPPLICATION5\수식트리 알고리즘CPP.CPP
D:\자료구조\CONSOLEAPPLICATION5\CONSOLEAPPLICATION5\DEBUG\VC140.PDB
D:\자료구조\CONSOLEAPPLICATION5\CONSOLEAPPLICATION5\DEBUG\VC140.IDB
D:\자료구조\CONSOLEAPPLICATION5\CONSOLEAPPLICATION5\DEBUG\수식트리 알고리즘CPP.OBJ
