^D:\자료구조\CONSOLEAPPLICATION5\CONSOLEAPPLICATION5\DEBUG\TREE.OBJ|D:\자료구조\CONSOLEAPPLICATION5\CONSOLEAPPLICATION5\DEBUG\수식트리 알고리즘CPP.OBJ
D:\자료구조\CONSOLEAPPLICATION5\DEBUG\CONSOLEAPPLICATION5.ILK
D:\자료구조\CONSOLEAPPLICATION5\DEBUG\CONSOLEAPPLICATION5.EXE
D:\자료구조\CONSOLEAPPLICATION5\DEBUG\CONSOLEAPPLICATION5.PDB
