{
     "name": {"pandas":"",
              "NumPy":"",
              "matplotlib":""},
    
     "year": {"pandas":2008,
              "NumPy":2006,
              "matplotlib":2003},
    
     "developer":{"pandas":"Wes Mckinneys",
                  "NumPy":"Travis Oliphant",
                  "matplotlib":"John D. Hunter"},
            
     "opensource":{"pandas":"True",
                   "NumPy":"True",
                   "matplotlib":"True"}
     
 }