127.0.0.1 - - [10/Oct/2020:14:21:19 +0900] "GET / HTTP/1.1" 404 1083
0:0:0:0:0:0:0:1 - - [10/Oct/2020:14:21:24 +0900] "GET /BoardWeb/ HTTP/1.1" 200 482
0:0:0:0:0:0:0:1 - - [10/Oct/2020:14:21:24 +0900] "GET /favicon.ico HTTP/1.1" 404 1094
0:0:0:0:0:0:0:1 - - [10/Oct/2020:14:21:26 +0900] "GET /BoardWeb/login.do HTTP/1.1" 200 883
0:0:0:0:0:0:0:1 - - [10/Oct/2020:14:21:28 +0900] "POST /BoardWeb/login.do HTTP/1.1" 200 6353
0:0:0:0:0:0:0:1 - - [10/Oct/2020:14:21:36 +0900] "GET /BoardWeb/insertBoard.jsp HTTP/1.1" 200 1140
0:0:0:0:0:0:0:1 - - [10/Oct/2020:14:21:44 +0900] "POST /BoardWeb/insertBoard.do HTTP/1.1" 200 6540
0:0:0:0:0:0:0:1 - - [10/Oct/2020:14:21:52 +0900] "GET /BoardWeb/getBoard.do?seq=28 HTTP/1.1" 200 1425
0:0:0:0:0:0:0:1 - - [10/Oct/2020:14:22:02 +0900] "POST /BoardWeb/updateBoard.do HTTP/1.1" 200 6540
0:0:0:0:0:0:0:1 - - [10/Oct/2020:14:22:03 +0900] "GET /BoardWeb/getBoard.do?seq=28 HTTP/1.1" 200 1425
0:0:0:0:0:0:0:1 - - [10/Oct/2020:14:22:04 +0900] "GET /BoardWeb/deleteBoard.do?seq=28 HTTP/1.1" 200 6353
