<?xml version="1.0" encoding="UTF-8"?>
<session version="1.0">
<refactoring comment="Delete resource &apos;BoardService&apos;" deleteContents="true" description="Delete resource &apos;BoardService&apos;" element1="/BoardService" flags="7" id="org.eclipse.ltk.core.refactoring.delete.resources" resources="1" stamp="1601188704762"/>
</session>