^E:\C# PROGRAMING PROJECT\ADUINO (16.09.07)\ADUINO (16.09.07)\소스.C
E:\C# PROGRAMING PROJECT\ADUINO (16.09.07)\ADUINO (16.09.07)\DEBUG\VC140.PDB
E:\C# PROGRAMING PROJECT\ADUINO (16.09.07)\ADUINO (16.09.07)\DEBUG\VC140.IDB
E:\C# PROGRAMING PROJECT\ADUINO (16.09.07)\ADUINO (16.09.07)\DEBUG\소스.OBJ
